B1K10A,vary,
B1K10B,vary,
B1K10C,vary,
B1K10D,vary,
B1K10E,vary,
B1K10F,vary,
B1K10G,vary,
B1K10H,vary,
B1K10J,vary,
B1K10K,vary,
B1K12A,vary,
B1K12B,vary,
B1K12C,vary,
B1K12D,vary,
B1K12E,vary,
B1K12F,vary,
B1K12G,vary,
B1K12H,vary,
B1K12J,vary,
B1K12K,vary,
B1K12L,vary,
B1K14A,vary,
B1K14B,vary,
B1K14C,vary,
B1K14D,vary,
B1K14E,vary,
B1K14F,vary,
B1K14G,vary,
B1K14H,vary,
B1K14J,vary,
B1K14K,vary,
B1K14L,vary,
B1K16A,vary,
B1K16B,vary,
B1K16C,vary,
B1K16D,vary,
B1K16E,vary,
B1K16F,vary,
B1K16G,vary,
B1K16H,vary,
B1K16J,vary,
B1K16K,vary,
B1K16L,vary,
B1K10,345,
B1K12,345,
B1K14,345,
B1K16,345,